<?xml version="1.0" encoding="UTF-8" standalone="no"?>
<svg
   xmlns:dc="http://purl.org/dc/elements/1.1/"
   xmlns:cc="http://creativecommons.org/ns#"
   xmlns:rdf="http://www.w3.org/1999/02/22-rdf-syntax-ns#"
   xmlns:svg="http://www.w3.org/2000/svg"
   xmlns="http://www.w3.org/2000/svg"
   xmlns:sodipodi="http://sodipodi.sourceforge.net/DTD/sodipodi-0.dtd"
   xmlns:inkscape="http://www.inkscape.org/namespaces/inkscape"
   inkscape:version="1.0.2 (e86c870879, 2021-01-15)"
   id="svg8"
   version="1.1"
   viewBox="0 0 1080 1350"
   height="1350"
   width="1080"
   sodipodi:docname="keyboard-bg.svg"
   inkscape:export-filename="/var/home/jimmac/src/git/gnome/GNOME-Release-40/src/keyboard-bg.png"
   inkscape:export-xdpi="96"
   inkscape:export-ydpi="96">
  <defs
     id="defs2">
    <inkscape:path-effect
       effect="powerclip"
       id="path-effect988"
       is_visible="true"
       lpeversion="1"
       inverse="true"
       flatten="false"
       hide_clip="false"
       message="Use fill-rule evenodd on &lt;b&gt;fill and stroke&lt;/b&gt; dialog if no flatten result after convert clip to paths." />
    <inkscape:path-effect
       effect="powerclip"
       id="path-effect979"
       is_visible="true"
       lpeversion="1"
       inverse="true"
       flatten="false"
       hide_clip="false"
       message="Use fill-rule evenodd on &lt;b&gt;fill and stroke&lt;/b&gt; dialog if no flatten result after convert clip to paths." />
    <inkscape:path-effect
       effect="fillet_chamfer"
       id="path-effect259"
       is_visible="true"
       lpeversion="1"
       satellites_param="F,0,0,1,0,8,0,1 @ F,0,0,1,0,8,0,1 @ F,0,0,1,0,8,0,1 @ F,0,0,1,0,8,0,1"
       unit="px"
       method="auto"
       mode="F"
       radius="8"
       chamfer_steps="1"
       flexible="false"
       use_knot_distance="true"
       apply_no_radius="true"
       apply_with_radius="true"
       only_selected="false"
       hide_knots="false" />
    <inkscape:path-effect
       effect="fillet_chamfer"
       id="path-effect4935"
       is_visible="true"
       lpeversion="1"
       satellites_param="F,0,0,1,0,15,0,1 @ F,0,0,1,0,15,0,1 @ F,0,0,1,0,3,0,1 @ F,0,0,1,0,3,0,1 @ F,0,0,1,0,14,0,1 @ F,0,0,1,0,14,0,1 @ F,0,0,1,0,3,0,1 @ F,0,0,1,0,3,0,1 @ F,0,0,1,0,14,0,1 @ F,0,0,1,0,14,0,1 @ F,0,0,1,0,3,0,1 @ F,0,0,1,0,3,0,1 @ F,0,0,1,0,14,0,1 @ F,0,0,1,0,14,0,1 @ F,0,0,1,0,30,0,1 @ F,0,0,1,0,20,0,1 @ F,0,0,1,0,13.969939,0,1 @ F,0,0,1,0,14.708233,0,1 @ F,0,0,1,0,15,0,1"
       unit="px"
       method="auto"
       mode="F"
       radius="0"
       chamfer_steps="1"
       flexible="false"
       use_knot_distance="true"
       apply_no_radius="true"
       apply_with_radius="true"
       only_selected="false"
       hide_knots="false" />
    <inkscape:path-effect
       effect="fillet_chamfer"
       id="path-effect4933"
       is_visible="true"
       lpeversion="1"
       satellites_param="F,0,0,1,0,15,0,1 @ F,0,0,1,0,15,0,1 @ F,0,0,1,0,3,0,1 @ F,0,0,1,0,3,0,1 @ F,0,0,1,0,14,0,1 @ F,0,0,1,0,14,0,1 @ F,0,0,1,0,3,0,1 @ F,0,0,1,0,3,0,1 @ F,0,0,1,0,14,0,1 @ F,0,0,1,0,14,0,1 @ F,0,0,1,0,3,0,1 @ F,0,0,1,0,3,0,1 @ F,0,0,1,0,14,0,1 @ F,0,0,1,0,14,0,1 @ F,0,0,1,0,30,0,1 @ F,0,0,1,0,20,0,1 @ F,0,0,1,0,11.804374,0,1 @ F,0,0,1,0,11.804374,0,1 @ F,0,0,1,0,15,0,1"
       unit="px"
       method="auto"
       mode="F"
       radius="0"
       chamfer_steps="1"
       flexible="false"
       use_knot_distance="true"
       apply_no_radius="true"
       apply_with_radius="true"
       only_selected="false"
       hide_knots="false" />
    <inkscape:path-effect
       effect="fillet_chamfer"
       id="path-effect724"
       is_visible="true"
       lpeversion="1"
       satellites_param="F,0,0,1,0,15,0,1 @ F,0,0,1,0,15,0,1 @ F,0,0,1,0,3,0,1 @ F,0,0,1,0,3,0,1 @ F,0,0,1,0,14,0,1 @ F,0,0,1,0,14,0,1 @ F,0,0,1,0,3,0,1 @ F,0,0,1,0,3,0,1 @ F,0,0,1,0,14,0,1 @ F,0,0,1,0,14,0,1 @ F,0,0,1,0,3,0,1 @ F,0,0,1,0,3,0,1 @ F,0,0,1,0,14,0,1 @ F,0,0,1,0,14,0,1 @ F,0,0,1,0,30,0,1 @ F,0,0,1,0,20,0,1 @ F,0,0,1,0,11.804374,0,1 @ F,0,0,1,0,11.804374,0,1 @ F,0,0,1,0,15,0,1"
       unit="px"
       method="auto"
       mode="F"
       radius="0"
       chamfer_steps="1"
       flexible="false"
       use_knot_distance="true"
       apply_no_radius="true"
       apply_with_radius="true"
       only_selected="false"
       hide_knots="false" />
    <inkscape:path-effect
       effect="fillet_chamfer"
       id="path-effect705"
       is_visible="true"
       lpeversion="1"
       satellites_param="F,0,0,1,0,15,0,1 @ F,0,0,1,0,15,0,1 @ F,0,0,1,0,3,0,1 @ F,0,0,1,0,3,0,1 @ F,0,0,1,0,14,0,1 @ F,0,0,1,0,14,0,1 @ F,0,0,1,0,3,0,1 @ F,0,0,1,0,3,0,1 @ F,0,0,1,0,14,0,1 @ F,0,0,1,0,14,0,1 @ F,0,0,1,0,3,0,1 @ F,0,0,1,0,3,0,1 @ F,0,0,1,0,14,0,1 @ F,0,0,1,0,14,0,1 @ F,0,0,1,0,30,0,1 @ F,0,0,1,0,20,0,1 @ F,0,0,1,0,13.969939,0,1 @ F,0,0,1,0,14.708233,0,1 @ F,0,0,1,0,15,0,1"
       unit="px"
       method="auto"
       mode="F"
       radius="0"
       chamfer_steps="1"
       flexible="false"
       use_knot_distance="true"
       apply_no_radius="true"
       apply_with_radius="true"
       only_selected="false"
       hide_knots="false" />
    <clipPath
       clipPathUnits="userSpaceOnUse"
       id="clipPath984">
      <circle
         style="font-variation-settings:normal;display:none;opacity:1;vector-effect:none;fill:#77767b;fill-opacity:1;stroke:none;stroke-width:5.04302;stroke-linecap:round;stroke-linejoin:miter;stroke-miterlimit:4;stroke-dasharray:none;stroke-dashoffset:0;stroke-opacity:1;marker:none;marker-start:none;marker-mid:none;marker-end:none;paint-order:normal;stop-color:#000000;stop-opacity:1"
         id="circle986"
         cx="541.88373"
         cy="647.72638"
         r="73.975525" />
      <path
         id="lpe_path-effect988"
         style="font-variation-settings:normal;display:block;opacity:1;vector-effect:none;fill:#77767b;fill-opacity:1;stroke:none;stroke-width:5.04302;stroke-linecap:round;stroke-linejoin:miter;stroke-miterlimit:4;stroke-dasharray:none;stroke-dashoffset:0;stroke-opacity:1;marker:none;marker-start:none;marker-mid:none;marker-end:none;paint-order:normal;stop-color:#000000;stop-opacity:1"
         class="powerclip"
         d="m 399.30566,389.6405 h 285.1561 v 408.04123 h -285.1561 z m 216.55359,258.08588 a 73.975525,73.975525 0 0 0 -73.97552,-73.97553 73.975525,73.975525 0 0 0 -73.97553,73.97553 73.975525,73.975525 0 0 0 73.97553,73.97552 73.975525,73.975525 0 0 0 73.97552,-73.97552 z" />
    </clipPath>
  </defs>
  <sodipodi:namedview
     units="px"
     borderlayer="true"
     inkscape:showpageshadow="false"
     showgrid="false"
     inkscape:document-rotation="0"
     inkscape:current-layer="layer1"
     inkscape:document-units="px"
     inkscape:cy="560"
     inkscape:cx="400"
     inkscape:zoom="0.35"
     inkscape:pageshadow="2"
     inkscape:pageopacity="0"
     borderopacity="1"
     bordercolor="#383838"
     pagecolor="#1f1f1f"
     id="base" />
  <metadata
     id="metadata5">
    <rdf:RDF>
      <cc:Work
         rdf:about="">
        <dc:format>image/svg+xml</dc:format>
        <dc:type
           rdf:resource="http://purl.org/dc/dcmitype/StillImage" />
        <dc:title />
        <cc:license
           rdf:resource="http://creativecommons.org/licenses/by-sa/4.0/" />
      </cc:Work>
      <cc:License
         rdf:about="http://creativecommons.org/licenses/by-sa/4.0/">
        <cc:permits
           rdf:resource="http://creativecommons.org/ns#Reproduction" />
        <cc:permits
           rdf:resource="http://creativecommons.org/ns#Distribution" />
        <cc:requires
           rdf:resource="http://creativecommons.org/ns#Notice" />
        <cc:requires
           rdf:resource="http://creativecommons.org/ns#Attribution" />
        <cc:permits
           rdf:resource="http://creativecommons.org/ns#DerivativeWorks" />
        <cc:requires
           rdf:resource="http://creativecommons.org/ns#ShareAlike" />
      </cc:License>
    </rdf:RDF>
  </metadata>
  <g
     id="layer1"
     inkscape:groupmode="layer"
     inkscape:label="Layer 1">
    <g
       transform="matrix(4.8493401,0,0,4.8493401,28.460667,18.781515)"
       id="g29394"
       style="display:inline;stroke-width:1.04199">
      <path
         id="rect29072"
         style="display:inline;opacity:1;vector-effect:none;fill:#000000;fill-opacity:0.102362;stroke:none;stroke-width:1.037;stroke-linecap:round;stroke-linejoin:miter;stroke-miterlimit:4;stroke-dasharray:none;stroke-dashoffset:0;stroke-opacity:1;marker:none;marker-start:none;marker-mid:none;marker-end:none;paint-order:normal"
         d="m 59.729442,185.41743 h 93.618748 c 0.98138,0 1.77145,0.79007 1.77145,1.77146 v 30.77208 c 0,0.98138 -0.79007,1.77145 -1.77145,1.77145 H 59.729442 c -0.981385,0 -1.771453,-0.79007 -1.771453,-1.77145 v -30.77208 c 0,-0.98139 0.790068,-1.77146 1.771453,-1.77146 z"
         sodipodi:nodetypes="sssssssss" />
      <path
         id="rect29074"
         style="display:inline;opacity:1;vector-effect:none;fill:#5e5c64;fill-opacity:1;stroke:none;stroke-width:1.03994;stroke-linecap:round;stroke-linejoin:miter;stroke-miterlimit:4;stroke-dasharray:none;stroke-dashoffset:0;stroke-opacity:1;marker:none;marker-start:none;marker-mid:none;marker-end:none;paint-order:normal"
         d="m 59.729442,183.89973 h 93.618748 c 0.98138,0 1.77145,0.79007 1.77145,1.77146 v 30.96686 c 0,0.98139 -0.79007,1.77146 -1.77145,1.77146 H 59.729442 c -0.981385,0 -1.771453,-0.79007 -1.771453,-1.77146 v -30.96686 c 0,-0.98139 0.790068,-1.77146 1.771453,-1.77146 z"
         sodipodi:nodetypes="sssssssss" />
      <path
         id="rect29076"
         style="display:inline;opacity:1;vector-effect:none;fill:#9a9996;fill-opacity:1;stroke:none;stroke-width:1.037;stroke-linecap:round;stroke-linejoin:miter;stroke-miterlimit:4;stroke-dasharray:none;stroke-dashoffset:0;stroke-opacity:1;marker:none;marker-start:none;marker-mid:none;marker-end:none;paint-order:normal"
         d="m 59.729442,182.69067 h 93.618748 c 0.98138,0 1.77145,0.79007 1.77145,1.77146 v 30.77207 c 0,0.98139 -0.79007,1.77145 -1.77145,1.77145 H 59.729442 c -0.981385,0 -1.771453,-0.79006 -1.771453,-1.77145 v -30.77207 c 0,-0.98139 0.790068,-1.77146 1.771453,-1.77146 z"
         sodipodi:nodetypes="sssssssss" />
      <path
         style="display:inline;opacity:1;vector-effect:none;fill:#000000;fill-opacity:1;stroke:none;stroke-width:1.65416;stroke-linecap:round;stroke-linejoin:miter;stroke-miterlimit:4;stroke-dasharray:none;stroke-dashoffset:0;stroke-opacity:1;marker:none;marker-start:none;marker-mid:none;marker-end:none;paint-order:normal"
         d="m 89.437739,207.03241 h 20.463741 c 0.56117,0 1.01293,0.45177 1.01293,1.01294 v 3.2658 c 0,0.56117 -0.45176,1.01294 -1.01293,1.01294 H 89.437739 c -0.56117,0 -1.01293,-0.45177 -1.01293,-1.01294 v -3.2658 c 0,-0.56117 0.45176,-1.01294 1.01293,-1.01294 z"
         id="path6093" />
      <path
         style="display:inline;opacity:1;vector-effect:none;fill:#000000;fill-opacity:1;stroke:none;stroke-width:1.65416;stroke-linecap:round;stroke-linejoin:miter;stroke-miterlimit:4;stroke-dasharray:none;stroke-dashoffset:0;stroke-opacity:1;marker:none;marker-start:none;marker-mid:none;marker-end:none;paint-order:normal"
         d="m 113.25026,207.03241 h 4.58871 c 0.56117,0 1.01293,0.45177 1.01293,1.01294 v 3.2658 c 0,0.56116 -0.45176,1.01293 -1.01293,1.01293 h -4.58871 c -0.56116,0 -1.01293,-0.45177 -1.01293,-1.01293 v -3.2658 c 0,-0.56117 0.45177,-1.01294 1.01293,-1.01294 z"
         id="path6091" />
      <path
         style="display:inline;opacity:1;vector-effect:none;fill:#000000;fill-opacity:1;stroke:none;stroke-width:1.65416;stroke-linecap:round;stroke-linejoin:miter;stroke-miterlimit:4;stroke-dasharray:none;stroke-dashoffset:0;stroke-opacity:1;marker:none;marker-start:none;marker-mid:none;marker-end:none;paint-order:normal"
         d="m 121.18776,207.03241 h 4.58871 c 0.56117,0 1.01293,0.45177 1.01293,1.01294 v 3.2658 c 0,0.56116 -0.45176,1.01293 -1.01293,1.01293 h -4.58871 c -0.56116,0 -1.01293,-0.45177 -1.01293,-1.01293 v -3.2658 c 0,-0.56117 0.45177,-1.01294 1.01293,-1.01294 z"
         id="path6089" />
      <path
         style="display:inline;opacity:1;vector-effect:none;fill:#000000;fill-opacity:1;stroke:none;stroke-width:1.65416;stroke-linecap:round;stroke-linejoin:miter;stroke-miterlimit:4;stroke-dasharray:none;stroke-dashoffset:0;stroke-opacity:1;marker:none;marker-start:none;marker-mid:none;marker-end:none;paint-order:normal"
         d="m 117.21901,200.41782 h 3.2658 c 0.56117,0 1.01294,0.45177 1.01294,1.01293 v 3.2658 c 0,0.56117 -0.45177,1.01294 -1.01294,1.01294 h -3.2658 c -0.56116,0 -1.01293,-0.45177 -1.01293,-1.01294 v -3.2658 c 0,-0.56116 0.45177,-1.01293 1.01293,-1.01293 z"
         id="path6087" />
      <path
         style="display:inline;opacity:1;vector-effect:none;fill:#000000;fill-opacity:1;stroke:none;stroke-width:1.65416;stroke-linecap:round;stroke-linejoin:miter;stroke-miterlimit:4;stroke-dasharray:none;stroke-dashoffset:0;stroke-opacity:1;marker:none;marker-start:none;marker-mid:none;marker-end:none;paint-order:normal"
         d="m 109.2815,200.41782 h 4.58871 c 0.56116,0 1.01293,0.45177 1.01293,1.01293 v 3.2658 c 0,0.56117 -0.45177,1.01294 -1.01293,1.01294 h -4.58871 c -0.56117,0 -1.01293,-0.45177 -1.01293,-1.01294 v -3.2658 c 0,-0.56116 0.45176,-1.01293 1.01293,-1.01293 z"
         id="path6085" />
      <path
         style="display:inline;opacity:1;vector-effect:none;fill:#000000;fill-opacity:1;stroke:none;stroke-width:1.65416;stroke-linecap:round;stroke-linejoin:miter;stroke-miterlimit:4;stroke-dasharray:none;stroke-dashoffset:0;stroke-opacity:1;marker:none;marker-start:none;marker-mid:none;marker-end:none;paint-order:normal"
         d="m 101.344,200.41782 h 4.58871 c 0.56116,0 1.01293,0.45177 1.01293,1.01293 v 3.2658 c 0,0.56117 -0.45177,1.01294 -1.01293,1.01294 H 101.344 c -0.56117,0 -1.01293,-0.45177 -1.01293,-1.01294 v -3.2658 c 0,-0.56116 0.45176,-1.01293 1.01293,-1.01293 z"
         id="path6083" />
      <path
         style="display:inline;opacity:1;vector-effect:none;fill:#000000;fill-opacity:1;stroke:none;stroke-width:1.65416;stroke-linecap:round;stroke-linejoin:miter;stroke-miterlimit:4;stroke-dasharray:none;stroke-dashoffset:0;stroke-opacity:1;marker:none;marker-start:none;marker-mid:none;marker-end:none;paint-order:normal"
         d="m 93.40651,200.41782 h 4.588708 c 0.56117,0 1.01293,0.45177 1.01293,1.01293 v 3.2658 c 0,0.56117 -0.45176,1.01294 -1.01293,1.01294 H 93.40651 c -0.56116,0 -1.01293,-0.45177 -1.01293,-1.01294 v -3.2658 c 0,-0.56116 0.45177,-1.01293 1.01293,-1.01293 z"
         id="path6081" />
      <path
         style="display:inline;opacity:1;vector-effect:none;fill:#000000;fill-opacity:1;stroke:none;stroke-width:1.65416;stroke-linecap:round;stroke-linejoin:miter;stroke-miterlimit:4;stroke-dasharray:none;stroke-dashoffset:0;stroke-opacity:1;marker:none;marker-start:none;marker-mid:none;marker-end:none;paint-order:normal"
         d="m 77.491742,200.41782 h 4.588711 c 0.56116,0 1.01294,0.45177 1.01294,1.01293 v 3.2658 c 0,0.56117 -0.45178,1.01294 -1.01294,1.01294 h -4.588711 c -0.56117,0 -1.01293,-0.45177 -1.01293,-1.01294 v -3.2658 c 0,-0.56116 0.45176,-1.01293 1.01293,-1.01293 z"
         id="path6079" />
      <path
         style="display:inline;opacity:1;vector-effect:none;fill:#000000;fill-opacity:1;stroke:none;stroke-width:1.65416;stroke-linecap:round;stroke-linejoin:miter;stroke-miterlimit:4;stroke-dasharray:none;stroke-dashoffset:0;stroke-opacity:1;marker:none;marker-start:none;marker-mid:none;marker-end:none;paint-order:normal"
         d="m 69.554249,200.41782 h 4.588706 c 0.561165,0 1.012933,0.45177 1.012933,1.01293 v 3.2658 c 0,0.56117 -0.451768,1.01294 -1.012933,1.01294 h -4.588706 c -0.561165,0 -1.012933,-0.45177 -1.012933,-1.01294 v -3.2658 c 0,-0.56116 0.451768,-1.01293 1.012933,-1.01293 z"
         id="path6077" />
      <path
         style="display:inline;opacity:1;vector-effect:none;fill:#000000;fill-opacity:1;stroke:none;stroke-width:1.65416;stroke-linecap:round;stroke-linejoin:miter;stroke-miterlimit:4;stroke-dasharray:none;stroke-dashoffset:0;stroke-opacity:1;marker:none;marker-start:none;marker-mid:none;marker-end:none;paint-order:normal"
         d="m 113.25028,193.80324 h 4.58871 c 0.56116,0 1.01293,0.45177 1.01293,1.01294 v 3.2658 c 0,0.56116 -0.45177,1.01293 -1.01293,1.01293 h -4.58871 c -0.56116,0 -1.01293,-0.45177 -1.01293,-1.01293 v -3.2658 c 0,-0.56117 0.45177,-1.01294 1.01293,-1.01294 z"
         id="path6075" />
      <path
         style="display:inline;opacity:1;vector-effect:none;fill:#000000;fill-opacity:1;stroke:none;stroke-width:1.65416;stroke-linecap:round;stroke-linejoin:miter;stroke-miterlimit:4;stroke-dasharray:none;stroke-dashoffset:0;stroke-opacity:1;marker:none;marker-start:none;marker-mid:none;marker-end:none;paint-order:normal"
         d="m 105.31276,193.80324 h 4.58871 c 0.56117,0 1.01293,0.45177 1.01293,1.01294 v 3.2658 c 0,0.56116 -0.45176,1.01293 -1.01293,1.01293 h -4.58871 c -0.56116,0 -1.01293,-0.45177 -1.01293,-1.01293 v -3.2658 c 0,-0.56117 0.45177,-1.01294 1.01293,-1.01294 z"
         id="path6073" />
      <path
         style="display:inline;opacity:1;vector-effect:none;fill:#000000;fill-opacity:1;stroke:none;stroke-width:1.65416;stroke-linecap:round;stroke-linejoin:miter;stroke-miterlimit:4;stroke-dasharray:none;stroke-dashoffset:0;stroke-opacity:1;marker:none;marker-start:none;marker-mid:none;marker-end:none;paint-order:normal"
         d="m 97.375248,193.80324 h 4.588712 c 0.56116,0 1.01293,0.45177 1.01293,1.01294 v 3.2658 c 0,0.56116 -0.45177,1.01293 -1.01293,1.01293 h -4.588712 c -0.56117,0 -1.01293,-0.45177 -1.01293,-1.01293 v -3.2658 c 0,-0.56117 0.45176,-1.01294 1.01293,-1.01294 z"
         id="path6071" />
      <path
         style="display:inline;opacity:1;vector-effect:none;fill:#000000;fill-opacity:1;stroke:none;stroke-width:1.65416;stroke-linecap:round;stroke-linejoin:miter;stroke-miterlimit:4;stroke-dasharray:none;stroke-dashoffset:0;stroke-opacity:1;marker:none;marker-start:none;marker-mid:none;marker-end:none;paint-order:normal"
         d="m 89.437759,193.80324 h 4.588721 c 0.56116,0 1.012928,0.45177 1.012928,1.01294 v 3.2658 c 0,0.56116 -0.451768,1.01293 -1.012928,1.01293 h -4.588721 c -0.56116,0 -1.01293,-0.45177 -1.01293,-1.01293 v -3.2658 c 0,-0.56117 0.45177,-1.01294 1.01293,-1.01294 z"
         id="path6069" />
      <path
         style="display:inline;opacity:1;vector-effect:none;fill:#000000;fill-opacity:1;stroke:none;stroke-width:1.65416;stroke-linecap:round;stroke-linejoin:miter;stroke-miterlimit:4;stroke-dasharray:none;stroke-dashoffset:0;stroke-opacity:1;marker:none;marker-start:none;marker-mid:none;marker-end:none;paint-order:normal"
         d="m 73.523007,193.80324 h 4.588705 c 0.56117,0 1.01293,0.45177 1.01293,1.01294 v 3.2658 c 0,0.56116 -0.45176,1.01293 -1.01293,1.01293 h -4.588705 c -0.561165,0 -1.012933,-0.45177 -1.012933,-1.01293 v -3.2658 c 0,-0.56117 0.451768,-1.01294 1.012933,-1.01294 z"
         id="path6067" />
      <path
         style="display:inline;opacity:1;vector-effect:none;fill:#000000;fill-opacity:1;stroke:none;stroke-width:1.65416;stroke-linecap:round;stroke-linejoin:miter;stroke-miterlimit:4;stroke-dasharray:none;stroke-dashoffset:0;stroke-opacity:1;marker:none;marker-start:none;marker-mid:none;marker-end:none;paint-order:normal"
         d="m 61.616749,193.80324 h 8.557466 c 0.561165,0 1.012933,0.45177 1.012933,1.01294 v 3.2658 c 0,0.56116 -0.451768,1.01293 -1.012933,1.01293 h -8.557466 c -0.561165,0 -1.012933,-0.45177 -1.012933,-1.01293 v -3.2658 c 0,-0.56117 0.451768,-1.01294 1.012933,-1.01294 z"
         id="path6065" />
      <path
         style="display:inline;opacity:1;vector-effect:none;fill:#000000;fill-opacity:1;stroke:none;stroke-width:1.65416;stroke-linecap:round;stroke-linejoin:miter;stroke-miterlimit:4;stroke-dasharray:none;stroke-dashoffset:0;stroke-opacity:1;marker:none;marker-start:none;marker-mid:none;marker-end:none;paint-order:normal"
         d="m 117.21901,187.18866 h 8.55746 c 0.56116,0 1.01293,0.45177 1.01293,1.01294 v 3.2658 c 0,0.56116 -0.45177,1.01293 -1.01293,1.01293 h -8.55746 c -0.56116,0 -1.01293,-0.45177 -1.01293,-1.01293 v -3.2658 c 0,-0.56117 0.45177,-1.01294 1.01293,-1.01294 z"
         id="path6063" />
      <path
         style="display:inline;opacity:1;vector-effect:none;fill:#000000;fill-opacity:1;stroke:none;stroke-width:1.65416;stroke-linecap:round;stroke-linejoin:miter;stroke-miterlimit:4;stroke-dasharray:none;stroke-dashoffset:0;stroke-opacity:1;marker:none;marker-start:none;marker-mid:none;marker-end:none;paint-order:normal"
         d="m 109.28151,187.18866 h 4.58871 c 0.56117,0 1.01293,0.45177 1.01293,1.01294 v 3.2658 c 0,0.56116 -0.45176,1.01293 -1.01293,1.01293 h -4.58871 c -0.56116,0 -1.01293,-0.45177 -1.01293,-1.01293 v -3.2658 c 0,-0.56117 0.45177,-1.01294 1.01293,-1.01294 z"
         id="path6061" />
      <path
         style="display:inline;opacity:1;vector-effect:none;fill:#000000;fill-opacity:1;stroke:none;stroke-width:1.65416;stroke-linecap:round;stroke-linejoin:miter;stroke-miterlimit:4;stroke-dasharray:none;stroke-dashoffset:0;stroke-opacity:1;marker:none;marker-start:none;marker-mid:none;marker-end:none;paint-order:normal"
         d="m 101.344,187.18866 h 4.58871 c 0.56116,0 1.01293,0.45177 1.01293,1.01294 v 3.2658 c 0,0.56116 -0.45177,1.01293 -1.01293,1.01293 H 101.344 c -0.56117,0 -1.01293,-0.45177 -1.01293,-1.01293 v -3.2658 c 0,-0.56117 0.45176,-1.01294 1.01293,-1.01294 z"
         id="path6059" />
      <path
         style="display:inline;opacity:1;vector-effect:none;fill:#000000;fill-opacity:1;stroke:none;stroke-width:1.65416;stroke-linecap:round;stroke-linejoin:miter;stroke-miterlimit:4;stroke-dasharray:none;stroke-dashoffset:0;stroke-opacity:1;marker:none;marker-start:none;marker-mid:none;marker-end:none;paint-order:normal"
         d="m 93.40652,187.18866 h 4.588708 c 0.56116,0 1.01293,0.45177 1.01293,1.01294 v 3.2658 c 0,0.56116 -0.45177,1.01293 -1.01293,1.01293 H 93.40652 c -0.56116,0 -1.01293,-0.45177 -1.01293,-1.01293 v -3.2658 c 0,-0.56117 0.45177,-1.01294 1.01293,-1.01294 z"
         id="path6057" />
      <path
         style="display:inline;opacity:1;vector-effect:none;fill:#000000;fill-opacity:1;stroke:none;stroke-width:1.65416;stroke-linecap:round;stroke-linejoin:miter;stroke-miterlimit:4;stroke-dasharray:none;stroke-dashoffset:0;stroke-opacity:1;marker:none;marker-start:none;marker-mid:none;marker-end:none;paint-order:normal"
         d="m 77.491752,187.18866 h 4.588711 c 0.56117,0 1.01294,0.45177 1.01294,1.01294 v 3.2658 c 0,0.56116 -0.45177,1.01293 -1.01294,1.01293 h -4.588711 c -0.56116,0 -1.01293,-0.45177 -1.01293,-1.01293 v -3.2658 c 0,-0.56117 0.45177,-1.01294 1.01293,-1.01294 z"
         id="path6055" />
      <path
         style="display:inline;opacity:1;vector-effect:none;fill:#000000;fill-opacity:1;stroke:none;stroke-width:1.65416;stroke-linecap:round;stroke-linejoin:miter;stroke-miterlimit:4;stroke-dasharray:none;stroke-dashoffset:0;stroke-opacity:1;marker:none;marker-start:none;marker-mid:none;marker-end:none;paint-order:normal"
         d="m 69.554249,187.18866 h 4.588706 c 0.561165,0 1.012933,0.45177 1.012933,1.01294 v 3.2658 c 0,0.56116 -0.451768,1.01293 -1.012933,1.01293 h -4.588706 c -0.561165,0 -1.012933,-0.45177 -1.012933,-1.01293 v -3.2658 c 0,-0.56117 0.451768,-1.01294 1.012933,-1.01294 z"
         id="path6053" />
      <path
         style="display:inline;opacity:1;vector-effect:none;fill:#000000;fill-opacity:1;stroke:none;stroke-width:1.65416;stroke-linecap:round;stroke-linejoin:miter;stroke-miterlimit:4;stroke-dasharray:none;stroke-dashoffset:0;stroke-opacity:1;marker:none;marker-start:none;marker-mid:none;marker-end:none;paint-order:normal"
         d="m 61.616749,187.18866 h 4.588706 c 0.561165,0 1.012933,0.45177 1.012933,1.01294 v 3.2658 c 0,0.56116 -0.451768,1.01293 -1.012933,1.01293 h -4.588706 c -0.561165,0 -1.012933,-0.45177 -1.012933,-1.01293 v -3.2658 c 0,-0.56117 0.451768,-1.01294 1.012933,-1.01294 z"
         id="path6051" />
      <path
         style="display:inline;opacity:1;vector-effect:none;fill:#000000;fill-opacity:1;stroke:none;stroke-width:1.65416;stroke-linecap:round;stroke-linejoin:miter;stroke-miterlimit:4;stroke-dasharray:none;stroke-dashoffset:0;stroke-opacity:1;marker:none;marker-start:none;marker-mid:none;marker-end:none;paint-order:normal"
         d="m 61.616757,200.41782 h 4.588705 c 0.561165,0 1.012933,0.45177 1.012933,1.01293 v 3.2658 c 0,0.56117 -0.451768,1.01294 -1.012933,1.01294 h -4.588705 c -0.561165,0 -1.012933,-0.45177 -1.012933,-1.01294 v -3.2658 c 0,-0.56116 0.451768,-1.01293 1.012933,-1.01293 z"
         id="path6049" />
      <path
         style="display:inline;opacity:1;vector-effect:none;fill:#000000;fill-opacity:1;stroke:none;stroke-width:1.65416;stroke-linecap:round;stroke-linejoin:miter;stroke-miterlimit:4;stroke-dasharray:none;stroke-dashoffset:0;stroke-opacity:1;marker:none;marker-start:none;marker-mid:none;marker-end:none;paint-order:normal"
         d="m 73.523007,207.03241 h 4.588705 c 0.56117,0 1.01293,0.45177 1.01293,1.01294 v 3.2658 c 0,0.56116 -0.45176,1.01293 -1.01293,1.01293 h -4.588705 c -0.561165,0 -1.012933,-0.45177 -1.012933,-1.01293 v -3.2658 c 0,-0.56117 0.451768,-1.01294 1.012933,-1.01294 z"
         id="path6047" />
      <path
         style="display:inline;opacity:1;vector-effect:none;fill:#000000;fill-opacity:1;stroke:none;stroke-width:1.65416;stroke-linecap:round;stroke-linejoin:miter;stroke-miterlimit:4;stroke-dasharray:none;stroke-dashoffset:0;stroke-opacity:1;marker:none;marker-start:none;marker-mid:none;marker-end:none;paint-order:normal"
         d="m 61.616749,207.03241 h 8.557485 c 0.561165,0 1.012933,0.45177 1.012933,1.01294 v 3.2658 c 0,0.56116 -0.451768,1.01293 -1.012933,1.01293 h -8.557485 c -0.561165,0 -1.012933,-0.45177 -1.012933,-1.01293 v -3.2658 c 0,-0.56117 0.451768,-1.01294 1.012933,-1.01294 z"
         id="path6045" />
      <path
         style="display:inline;opacity:1;vector-effect:none;fill:#000000;fill-opacity:1;stroke:none;stroke-width:1.65416;stroke-linecap:round;stroke-linejoin:miter;stroke-miterlimit:4;stroke-dasharray:none;stroke-dashoffset:0;stroke-opacity:1;marker:none;marker-start:none;marker-mid:none;marker-end:none;paint-order:normal"
         d="m 121.18775,193.80324 h 4.58871 c 0.56116,0 1.01293,0.45177 1.01293,1.01294 v 3.2658 c 0,0.56116 -0.45177,1.01293 -1.01293,1.01293 h -4.58871 c -0.56117,0 -1.01293,-0.45177 -1.01293,-1.01293 v -3.2658 c 0,-0.56117 0.45176,-1.01294 1.01293,-1.01294 z"
         id="path6043" />
      <path
         style="display:inline;opacity:1;vector-effect:none;fill:#000000;fill-opacity:1;stroke:none;stroke-width:1.65416;stroke-linecap:round;stroke-linejoin:miter;stroke-miterlimit:4;stroke-dasharray:none;stroke-dashoffset:0;stroke-opacity:1;marker:none;marker-start:none;marker-mid:none;marker-end:none;paint-order:normal"
         d="m 123.83359,193.80324 h 1.94287 c 0.56116,0 1.01293,0.45177 1.01293,1.01294 v 9.88037 c 0,0.56117 -0.45177,1.01294 -1.01293,1.01294 h -1.94287 c -0.56116,0 -1.01293,-0.45177 -1.01293,-1.01294 v -9.88037 c 0,-0.56117 0.45177,-1.01294 1.01293,-1.01294 z"
         id="rect29280" />
      <path
         style="display:inline;opacity:1;vector-effect:none;fill:#36343d;fill-opacity:1;stroke:none;stroke-width:1.8916;stroke-linecap:round;stroke-linejoin:miter;stroke-miterlimit:4;stroke-dasharray:none;stroke-dashoffset:0;stroke-opacity:1;marker:none;marker-start:none;marker-mid:none;marker-end:none;paint-order:normal"
         d="m 121.18791,206.50316 c -0.56117,0 -1.01286,0.45169 -1.01286,1.01285 v 3.26595 c 0,0.56117 0.45169,1.01286 1.01286,1.01286 h 4.58835 c 0.56117,0 1.01337,-0.45169 1.01337,-1.01286 v -3.26595 c 0,-0.56116 -0.4522,-1.01285 -1.01337,-1.01285 z"
         id="path6039" />
      <path
         style="display:inline;opacity:1;vector-effect:none;fill:#36343d;fill-opacity:1;stroke:none;stroke-width:1.8916;stroke-linecap:round;stroke-linejoin:miter;stroke-miterlimit:4;stroke-dasharray:none;stroke-dashoffset:0;stroke-opacity:1;marker:none;marker-start:none;marker-mid:none;marker-end:none;paint-order:normal"
         d="m 113.25041,206.50316 c -0.56116,0 -1.01286,0.45169 -1.01286,1.01285 v 3.26595 c 0,0.56117 0.4517,1.01286 1.01286,1.01286 h 4.58835 c 0.56116,0 1.01337,-0.45169 1.01337,-1.01286 v -3.26595 c 0,-0.56116 -0.45221,-1.01285 -1.01337,-1.01285 z"
         id="path6037" />
      <path
         style="display:inline;opacity:1;vector-effect:none;fill:#36343d;fill-opacity:1;stroke:none;stroke-width:1.8916;stroke-linecap:round;stroke-linejoin:miter;stroke-miterlimit:4;stroke-dasharray:none;stroke-dashoffset:0;stroke-opacity:1;marker:none;marker-start:none;marker-mid:none;marker-end:none;paint-order:normal"
         d="m 89.437906,206.50316 c -0.561163,0 -1.012857,0.45169 -1.012857,1.01285 v 3.26595 c 0,0.56116 0.451694,1.01286 1.012857,1.01286 h 20.463354 c 0.56116,0 1.01337,-0.4517 1.01337,-1.01286 v -3.26595 c 0,-0.56116 -0.45221,-1.01285 -1.01337,-1.01285 z"
         id="path6035" />
      <path
         style="display:inline;opacity:1;vector-effect:none;fill:#36343d;fill-opacity:1;stroke:none;stroke-width:7.14935;stroke-linecap:round;stroke-linejoin:miter;stroke-miterlimit:4;stroke-dasharray:none;stroke-dashoffset:0;stroke-opacity:1;marker:none;marker-start:none;marker-mid:none;marker-end:none;paint-order:normal"
         d="m 277.88281,780.48438 c -2.12094,0 -3.82812,1.7072 -3.82812,3.82812 v 12.34375 c 0,2.12096 1.70718,3.82813 3.82812,3.82813 h 17.3418 c 2.12094,-10e-6 3.83008,-1.70717 3.83008,-3.82813 V 784.3125 c 0,-2.12092 -1.70914,-3.82812 -3.83008,-3.82812 z"
         transform="scale(0.26458333)"
         id="path6033" />
      <path
         style="display:inline;opacity:1;vector-effect:none;fill:#36343d;fill-opacity:1;stroke:none;stroke-width:7.14935;stroke-linecap:round;stroke-linejoin:miter;stroke-miterlimit:4;stroke-dasharray:none;stroke-dashoffset:0;stroke-opacity:1;marker:none;marker-start:none;marker-mid:none;marker-end:none;paint-order:normal"
         d="m 232.88281,780.48438 c -2.12094,0 -3.82812,1.7072 -3.82812,3.82812 v 12.34375 c 0,2.12096 1.70718,3.82813 3.82812,3.82813 h 32.3418 c 2.12094,-10e-6 3.83008,-1.70717 3.83008,-3.82813 V 784.3125 c 0,-2.12092 -1.70914,-3.82812 -3.83008,-3.82812 z"
         transform="scale(0.26458333)"
         id="path6031" />
      <path
         style="display:inline;opacity:1;vector-effect:none;fill:#36343d;fill-opacity:1;stroke:none;stroke-width:1.8916;stroke-linecap:round;stroke-linejoin:miter;stroke-miterlimit:4;stroke-dasharray:none;stroke-dashoffset:0;stroke-opacity:1;marker:none;marker-start:none;marker-mid:none;marker-end:none;paint-order:normal"
         d="m 117.21916,199.88857 c -0.56116,0 -1.01286,0.45169 -1.01286,1.01286 v 3.26595 c 0,0.56117 0.4517,1.01286 1.01286,1.01286 h 3.26543 c 0.56116,0 1.01338,-0.45169 1.01338,-1.01286 v -3.26595 c 0,-0.56117 -0.45222,-1.01286 -1.01338,-1.01286 z"
         id="path6029" />
      <path
         style="display:inline;opacity:1;vector-effect:none;fill:#36343d;fill-opacity:1;stroke:none;stroke-width:1.8916;stroke-linecap:round;stroke-linejoin:miter;stroke-miterlimit:4;stroke-dasharray:none;stroke-dashoffset:0;stroke-opacity:1;marker:none;marker-start:none;marker-mid:none;marker-end:none;paint-order:normal"
         d="m 109.28166,199.88857 c -0.56116,0 -1.01286,0.45169 -1.01286,1.01286 v 3.26595 c 0,0.56117 0.4517,1.01286 1.01286,1.01286 h 4.58835 c 0.56116,0 1.01286,-0.45169 1.01286,-1.01286 v -3.26595 c 0,-0.56117 -0.4517,-1.01286 -1.01286,-1.01286 z"
         id="path6027" />
      <path
         style="display:inline;opacity:1;vector-effect:none;fill:#36343d;fill-opacity:1;stroke:none;stroke-width:1.8916;stroke-linecap:round;stroke-linejoin:miter;stroke-miterlimit:4;stroke-dasharray:none;stroke-dashoffset:0;stroke-opacity:1;marker:none;marker-start:none;marker-mid:none;marker-end:none;paint-order:normal"
         d="m 101.34416,199.88857 c -0.56117,0 -1.01286,0.45169 -1.01286,1.01286 v 3.26595 c 0,0.56117 0.45169,1.01286 1.01286,1.01286 h 4.58835 c 0.56116,0 1.01286,-0.45169 1.01286,-1.01286 v -3.26595 c 0,-0.56117 -0.4517,-1.01286 -1.01286,-1.01286 z"
         id="path6025" />
      <path
         style="display:inline;opacity:1;vector-effect:none;fill:#36343d;fill-opacity:1;stroke:none;stroke-width:1.8916;stroke-linecap:round;stroke-linejoin:miter;stroke-miterlimit:4;stroke-dasharray:none;stroke-dashoffset:0;stroke-opacity:1;marker:none;marker-start:none;marker-mid:none;marker-end:none;paint-order:normal"
         d="m 93.406656,199.88857 c -0.561163,0 -1.012857,0.45169 -1.012857,1.01286 v 3.26595 c 0,0.56117 0.451694,1.01286 1.012857,1.01286 h 4.588352 c 0.56116,0 1.01337,-0.45169 1.01337,-1.01286 v -3.26595 c 0,-0.56117 -0.45221,-1.01286 -1.01337,-1.01286 z"
         id="path6023" />
      <path
         style="display:inline;opacity:1;vector-effect:none;fill:#36343d;fill-opacity:1;stroke:none;stroke-width:7.14935;stroke-linecap:round;stroke-linejoin:miter;stroke-miterlimit:4;stroke-dasharray:none;stroke-dashoffset:0;stroke-opacity:1;marker:none;marker-start:none;marker-mid:none;marker-end:none;paint-order:normal"
         d="m 292.88281,755.48438 c -2.12093,-10e-6 -3.82812,1.70716 -3.82812,3.82812 v 12.34375 c 0,2.12096 1.70719,3.82813 3.82812,3.82813 h 17.3418 c 2.12094,-10e-6 3.82812,-1.70717 3.82812,-3.82813 V 759.3125 c 0,-2.12096 -1.70718,-3.82812 -3.82812,-3.82812 z"
         transform="scale(0.26458333)"
         id="path6021" />
      <path
         style="display:inline;opacity:1;vector-effect:none;fill:#36343d;fill-opacity:1;stroke:none;stroke-width:7.14935;stroke-linecap:round;stroke-linejoin:miter;stroke-miterlimit:4;stroke-dasharray:none;stroke-dashoffset:0;stroke-opacity:1;marker:none;marker-start:none;marker-mid:none;marker-end:none;paint-order:normal"
         d="m 262.88281,755.48438 c -2.12094,-10e-6 -3.82812,1.70716 -3.82812,3.82812 v 12.34375 c 0,2.12096 1.70718,3.82813 3.82812,3.82813 h 17.3418 c 2.12094,-10e-6 3.83008,-1.70717 3.83008,-3.82813 V 759.3125 c 0,-2.12096 -1.70914,-3.82812 -3.83008,-3.82812 z"
         transform="scale(0.26458333)"
         id="path6019" />
      <path
         style="display:inline;opacity:1;vector-effect:none;fill:#36343d;fill-opacity:1;stroke:none;stroke-width:7.14935;stroke-linecap:round;stroke-linejoin:miter;stroke-miterlimit:4;stroke-dasharray:none;stroke-dashoffset:0;stroke-opacity:1;marker:none;marker-start:none;marker-mid:none;marker-end:none;paint-order:normal"
         d="m 232.88281,755.48438 c -2.12094,-10e-6 -3.82812,1.70716 -3.82812,3.82812 v 12.34375 c 0,2.12096 1.70718,3.82813 3.82812,3.82813 h 17.3418 c 2.12094,-10e-6 3.83008,-1.70717 3.83008,-3.82813 V 759.3125 c 0,-2.12096 -1.70914,-3.82812 -3.83008,-3.82812 z"
         transform="scale(0.26458333)"
         id="path6017" />
      <path
         style="display:inline;opacity:1;vector-effect:none;fill:#36343d;fill-opacity:1;stroke:none;stroke-width:1.8916;stroke-linecap:round;stroke-linejoin:miter;stroke-miterlimit:4;stroke-dasharray:none;stroke-dashoffset:0;stroke-opacity:1;marker:none;marker-start:none;marker-mid:none;marker-end:none;paint-order:normal"
         d="m 121.18791,193.27399 c -0.56116,0 -1.01338,0.4517 -1.01338,1.01286 v 3.26595 c 0,0.56117 0.45222,1.01286 1.01338,1.01286 h 1.62264 v 5.60172 c 0,0.56117 0.45169,1.01286 1.01286,1.01286 h 1.94303 c 0.56117,0 1.01286,-0.45169 1.01286,-1.01286 v -6.51485 c 0.003,-0.0333 0.01,-0.0656 0.01,-0.0997 v -3.26595 c 0,-0.56116 -0.45169,-1.01286 -1.01285,-1.01286 h -0.01 -1.94303 z"
         id="path6015" />
      <path
         style="display:inline;opacity:1;vector-effect:none;fill:#36343d;fill-opacity:1;stroke:none;stroke-width:1.8916;stroke-linecap:round;stroke-linejoin:miter;stroke-miterlimit:4;stroke-dasharray:none;stroke-dashoffset:0;stroke-opacity:1;marker:none;marker-start:none;marker-mid:none;marker-end:none;paint-order:normal"
         d="m 113.25041,193.27399 c -0.56116,0 -1.01286,0.4517 -1.01286,1.01286 v 3.26595 c 0,0.56117 0.4517,1.01286 1.01286,1.01286 h 4.58835 c 0.56116,-1e-5 1.01337,-0.45169 1.01337,-1.01286 v -3.26595 c 0,-0.56116 -0.45221,-1.01286 -1.01337,-1.01286 z"
         id="path6013" />
      <path
         style="display:inline;opacity:1;vector-effect:none;fill:#36343d;fill-opacity:1;stroke:none;stroke-width:1.8916;stroke-linecap:round;stroke-linejoin:miter;stroke-miterlimit:4;stroke-dasharray:none;stroke-dashoffset:0;stroke-opacity:1;marker:none;marker-start:none;marker-mid:none;marker-end:none;paint-order:normal"
         d="m 105.31291,193.27399 c -0.56117,0 -1.01286,0.4517 -1.01286,1.01286 v 3.26595 c 0,0.56117 0.45169,1.01286 1.01286,1.01286 h 4.58835 c 0.56116,-1e-5 1.01337,-0.45169 1.01337,-1.01286 v -3.26595 c 0,-0.56116 -0.45221,-1.01286 -1.01337,-1.01286 z"
         id="path6011" />
      <path
         style="display:inline;opacity:1;vector-effect:none;fill:#36343d;fill-opacity:1;stroke:none;stroke-width:1.8916;stroke-linecap:round;stroke-linejoin:miter;stroke-miterlimit:4;stroke-dasharray:none;stroke-dashoffset:0;stroke-opacity:1;marker:none;marker-start:none;marker-mid:none;marker-end:none;paint-order:normal"
         d="m 97.375408,193.27399 c -0.56117,0 -1.01286,0.4517 -1.01286,1.01286 v 3.26595 c 0,0.56117 0.45169,1.01286 1.01286,1.01286 h 4.588352 c 0.56116,-1e-5 1.01286,-0.45169 1.01286,-1.01286 v -3.26595 c 0,-0.56116 -0.4517,-1.01286 -1.01286,-1.01286 z"
         id="path6009" />
      <path
         style="display:inline;opacity:1;vector-effect:none;fill:#36343d;fill-opacity:1;stroke:none;stroke-width:1.8916;stroke-linecap:round;stroke-linejoin:miter;stroke-miterlimit:4;stroke-dasharray:none;stroke-dashoffset:0;stroke-opacity:1;marker:none;marker-start:none;marker-mid:none;marker-end:none;paint-order:normal"
         d="m 89.437906,193.27399 c -0.561163,0 -1.012857,0.4517 -1.012857,1.01286 v 3.26595 c 0,0.56117 0.451694,1.01286 1.012857,1.01286 h 4.588351 c 0.561165,-1e-5 1.013371,-0.45169 1.013371,-1.01286 v -3.26595 c 0,-0.56116 -0.452206,-1.01286 -1.013371,-1.01286 z"
         id="path6007" />
      <path
         style="display:inline;opacity:1;vector-effect:none;fill:#36343d;fill-opacity:1;stroke:none;stroke-width:7.14935;stroke-linecap:round;stroke-linejoin:miter;stroke-miterlimit:4;stroke-dasharray:none;stroke-dashoffset:0;stroke-opacity:1;marker:none;marker-start:none;marker-mid:none;marker-end:none;paint-order:normal"
         d="m 277.88281,730.48438 c -2.12094,-10e-6 -3.82812,1.7072 -3.82812,3.82812 v 12.34375 c 0,2.12096 1.70718,3.82813 3.82812,3.82813 h 17.3418 c 2.12094,-10e-6 3.83008,-1.70717 3.83008,-3.82813 V 734.3125 c 0,-2.12092 -1.70914,-3.82812 -3.83008,-3.82812 z"
         transform="scale(0.26458333)"
         id="path6005" />
      <path
         style="display:inline;opacity:1;vector-effect:none;fill:#36343d;fill-opacity:1;stroke:none;stroke-width:7.14935;stroke-linecap:round;stroke-linejoin:miter;stroke-miterlimit:4;stroke-dasharray:none;stroke-dashoffset:0;stroke-opacity:1;marker:none;marker-start:none;marker-mid:none;marker-end:none;paint-order:normal"
         d="m 232.88281,730.48438 c -2.12094,-10e-6 -3.82812,1.7072 -3.82812,3.82812 v 12.34375 c 0,2.12096 1.70718,3.82813 3.82812,3.82813 h 32.3418 c 2.12094,-10e-6 3.83008,-1.70717 3.83008,-3.82813 V 734.3125 c 0,-2.12092 -1.70914,-3.82812 -3.83008,-3.82812 z"
         transform="scale(0.26458333)"
         id="path6003" />
      <path
         style="display:inline;opacity:1;vector-effect:none;fill:#36343d;fill-opacity:1;stroke:none;stroke-width:1.8916;stroke-linecap:round;stroke-linejoin:miter;stroke-miterlimit:4;stroke-dasharray:none;stroke-dashoffset:0;stroke-opacity:1;marker:none;marker-start:none;marker-mid:none;marker-end:none;paint-order:normal"
         d="m 117.21916,186.65941 c -0.56116,0 -1.01286,0.45169 -1.01286,1.01285 v 3.26595 c 0,0.56117 0.4517,1.01286 1.01286,1.01286 h 8.5571 c 0.56117,0 1.01337,-0.45169 1.01337,-1.01286 v -3.26595 c 0,-0.56116 -0.4522,-1.01285 -1.01337,-1.01285 z"
         id="path6001" />
      <path
         style="display:inline;opacity:1;vector-effect:none;fill:#36343d;fill-opacity:1;stroke:none;stroke-width:1.8916;stroke-linecap:round;stroke-linejoin:miter;stroke-miterlimit:4;stroke-dasharray:none;stroke-dashoffset:0;stroke-opacity:1;marker:none;marker-start:none;marker-mid:none;marker-end:none;paint-order:normal"
         d="m 109.28166,186.65941 c -0.56116,0 -1.01286,0.45169 -1.01286,1.01285 v 3.26595 c 0,0.56117 0.4517,1.01286 1.01286,1.01286 h 4.58835 c 0.56116,0 1.01337,-0.45169 1.01337,-1.01286 v -3.26595 c 0,-0.56116 -0.45221,-1.01285 -1.01337,-1.01285 z"
         id="path5999" />
      <path
         style="display:inline;opacity:1;vector-effect:none;fill:#36343d;fill-opacity:1;stroke:none;stroke-width:1.8916;stroke-linecap:round;stroke-linejoin:miter;stroke-miterlimit:4;stroke-dasharray:none;stroke-dashoffset:0;stroke-opacity:1;marker:none;marker-start:none;marker-mid:none;marker-end:none;paint-order:normal"
         d="m 101.34416,186.65941 c -0.56117,0 -1.01286,0.45169 -1.01286,1.01285 v 3.26595 c 0,0.56117 0.45169,1.01286 1.01286,1.01286 h 4.58835 c 0.56116,0 1.01286,-0.45169 1.01286,-1.01286 v -3.26595 c 0,-0.56116 -0.4517,-1.01285 -1.01286,-1.01285 z"
         id="path5997" />
      <path
         style="display:inline;opacity:1;vector-effect:none;fill:#36343d;fill-opacity:1;stroke:none;stroke-width:1.8916;stroke-linecap:round;stroke-linejoin:miter;stroke-miterlimit:4;stroke-dasharray:none;stroke-dashoffset:0;stroke-opacity:1;marker:none;marker-start:none;marker-mid:none;marker-end:none;paint-order:normal"
         d="m 93.406656,186.65941 c -0.561163,0 -1.012857,0.45169 -1.012857,1.01285 v 3.26595 c 0,0.56117 0.451694,1.01286 1.012857,1.01286 h 4.588352 c 0.56116,0 1.01337,-0.45169 1.01337,-1.01286 v -3.26595 c 0,-0.56116 -0.45221,-1.01285 -1.01337,-1.01285 z"
         id="path5995" />
      <path
         style="display:inline;opacity:1;vector-effect:none;fill:#36343d;fill-opacity:1;stroke:none;stroke-width:7.14935;stroke-linecap:round;stroke-linejoin:miter;stroke-miterlimit:4;stroke-dasharray:none;stroke-dashoffset:0;stroke-opacity:1;marker:none;marker-start:none;marker-mid:none;marker-end:none;paint-order:normal"
         d="m 292.88281,705.48438 c -2.12094,0 -3.82812,1.7072 -3.82812,3.82812 v 12.34375 c 0,2.12096 1.70718,3.82813 3.82812,3.82813 h 17.3418 c 2.12094,0 3.83008,-1.70717 3.83008,-3.82813 V 709.3125 c 0,-2.12092 -1.70914,-3.82812 -3.83008,-3.82812 z"
         transform="scale(0.26458333)"
         id="path5993" />
      <path
         style="display:inline;opacity:1;vector-effect:none;fill:#36343d;fill-opacity:1;stroke:none;stroke-width:7.14935;stroke-linecap:round;stroke-linejoin:miter;stroke-miterlimit:4;stroke-dasharray:none;stroke-dashoffset:0;stroke-opacity:1;marker:none;marker-start:none;marker-mid:none;marker-end:none;paint-order:normal"
         d="m 262.88281,705.48438 c -2.12094,0 -3.82812,1.7072 -3.82812,3.82812 v 12.34375 c 0,2.12096 1.70718,3.82813 3.82812,3.82813 h 17.3418 c 2.12094,0 3.83008,-1.70717 3.83008,-3.82813 V 709.3125 c 0,-2.12092 -1.70914,-3.82812 -3.83008,-3.82812 z"
         transform="scale(0.26458333)"
         id="path5991" />
      <path
         style="display:inline;opacity:1;vector-effect:none;fill:#36343d;fill-opacity:1;stroke:none;stroke-width:7.14935;stroke-linecap:round;stroke-linejoin:miter;stroke-miterlimit:4;stroke-dasharray:none;stroke-dashoffset:0;stroke-opacity:1;marker:none;marker-start:none;marker-mid:none;marker-end:none;paint-order:normal"
         d="m 232.88281,705.48438 c -2.12094,0 -3.82812,1.7072 -3.82812,3.82812 v 12.34375 c 0,2.12096 1.70718,3.82813 3.82812,3.82813 h 17.3418 c 2.12093,0 3.83008,-1.70717 3.83008,-3.82813 V 709.3125 c 0,-2.12092 -1.70915,-3.82812 -3.83008,-3.82812 z"
         transform="scale(0.26458333)"
         id="rect2260-9" />
      <path
         style="display:inline;opacity:1;vector-effect:none;fill:#000000;fill-opacity:1;stroke:none;stroke-width:1.65416;stroke-linecap:round;stroke-linejoin:miter;stroke-miterlimit:4;stroke-dasharray:none;stroke-dashoffset:0;stroke-opacity:1;marker:none;marker-start:none;marker-mid:none;marker-end:none;paint-order:normal"
         d="m 85.474457,200.41782 h 4.588708 c 0.56117,0 1.01293,0.45177 1.01293,1.01293 v 3.2658 c 0,0.56117 -0.45176,1.01294 -1.01293,1.01294 h -4.588708 c -0.56116,0 -1.01293,-0.45177 -1.01293,-1.01294 v -3.2658 c 0,-0.56116 0.45177,-1.01293 1.01293,-1.01293 z"
         id="path6113" />
      <path
         style="display:inline;opacity:1;vector-effect:none;fill:#000000;fill-opacity:1;stroke:none;stroke-width:1.65416;stroke-linecap:round;stroke-linejoin:miter;stroke-miterlimit:4;stroke-dasharray:none;stroke-dashoffset:0;stroke-opacity:1;marker:none;marker-start:none;marker-mid:none;marker-end:none;paint-order:normal"
         d="m 81.505706,193.80324 h 4.588721 c 0.56116,0 1.012928,0.45177 1.012928,1.01294 v 3.2658 c 0,0.56116 -0.451768,1.01293 -1.012928,1.01293 h -4.588721 c -0.56116,0 -1.01293,-0.45177 -1.01293,-1.01293 v -3.2658 c 0,-0.56117 0.45177,-1.01294 1.01293,-1.01294 z"
         id="path6115" />
      <path
         style="display:inline;opacity:1;vector-effect:none;fill:#000000;fill-opacity:1;stroke:none;stroke-width:1.65416;stroke-linecap:round;stroke-linejoin:miter;stroke-miterlimit:4;stroke-dasharray:none;stroke-dashoffset:0;stroke-opacity:1;marker:none;marker-start:none;marker-mid:none;marker-end:none;paint-order:normal"
         d="m 85.474467,187.18866 h 4.588708 c 0.56116,0 1.01293,0.45177 1.01293,1.01294 v 3.2658 c 0,0.56116 -0.45177,1.01293 -1.01293,1.01293 h -4.588708 c -0.56116,0 -1.01293,-0.45177 -1.01293,-1.01293 v -3.2658 c 0,-0.56117 0.45177,-1.01294 1.01293,-1.01294 z"
         id="path6117" />
      <path
         style="display:inline;opacity:1;vector-effect:none;fill:#36343d;fill-opacity:1;stroke:none;stroke-width:1.8916;stroke-linecap:round;stroke-linejoin:miter;stroke-miterlimit:4;stroke-dasharray:none;stroke-dashoffset:0;stroke-opacity:1;marker:none;marker-start:none;marker-mid:none;marker-end:none;paint-order:normal"
         d="m 85.474603,199.88857 c -0.561163,0 -1.012857,0.45169 -1.012857,1.01286 v 3.26595 c 0,0.56117 0.451694,1.01286 1.012857,1.01286 h 4.588352 c 0.56116,0 1.01337,-0.45169 1.01337,-1.01286 v -3.26595 c 0,-0.56117 -0.45221,-1.01286 -1.01337,-1.01286 z"
         id="path6119" />
      <path
         style="display:inline;opacity:1;vector-effect:none;fill:#36343d;fill-opacity:1;stroke:none;stroke-width:1.8916;stroke-linecap:round;stroke-linejoin:miter;stroke-miterlimit:4;stroke-dasharray:none;stroke-dashoffset:0;stroke-opacity:1;marker:none;marker-start:none;marker-mid:none;marker-end:none;paint-order:normal"
         d="m 81.505853,193.27399 c -0.561163,0 -1.012857,0.4517 -1.012857,1.01286 v 3.26595 c 0,0.56117 0.451694,1.01286 1.012857,1.01286 h 4.588351 c 0.561165,-1e-5 1.013371,-0.45169 1.013371,-1.01286 v -3.26595 c 0,-0.56116 -0.452206,-1.01286 -1.013371,-1.01286 z"
         id="path6121" />
      <path
         style="display:inline;opacity:1;vector-effect:none;fill:#36343d;fill-opacity:1;stroke:none;stroke-width:1.8916;stroke-linecap:round;stroke-linejoin:miter;stroke-miterlimit:4;stroke-dasharray:none;stroke-dashoffset:0;stroke-opacity:1;marker:none;marker-start:none;marker-mid:none;marker-end:none;paint-order:normal"
         d="m 85.474603,186.65941 c -0.561163,0 -1.012857,0.45169 -1.012857,1.01285 v 3.26595 c 0,0.56117 0.451694,1.01286 1.012857,1.01286 h 4.588352 c 0.56116,0 1.01337,-0.45169 1.01337,-1.01286 v -3.26595 c 0,-0.56116 -0.45221,-1.01285 -1.01337,-1.01285 z"
         id="path6123" />
      <path
         style="display:inline;opacity:1;vector-effect:none;fill:#000000;fill-opacity:1;stroke:none;stroke-width:1.65416;stroke-linecap:round;stroke-linejoin:miter;stroke-miterlimit:4;stroke-dasharray:none;stroke-dashoffset:0;stroke-opacity:1;marker:none;marker-start:none;marker-mid:none;marker-end:none;paint-order:normal"
         d="m 81.52239,207.03241 h 4.588705 c 0.56117,0 1.01293,0.45177 1.01293,1.01294 v 3.2658 c 0,0.56116 -0.45176,1.01293 -1.01293,1.01293 H 81.52239 c -0.561165,0 -1.012933,-0.45177 -1.012933,-1.01293 v -3.2658 c 0,-0.56117 0.451768,-1.01294 1.012933,-1.01294 z"
         id="path6125" />
      <path
         style="display:inline;opacity:1;vector-effect:none;fill:#36343d;fill-opacity:1;stroke:none;stroke-width:1.8916;stroke-linecap:round;stroke-linejoin:miter;stroke-miterlimit:4;stroke-dasharray:none;stroke-dashoffset:0;stroke-opacity:1;marker:none;marker-start:none;marker-mid:none;marker-end:none;paint-order:normal"
         d="m 81.522542,206.50316 c -0.561165,0 -1.012856,0.45169 -1.012856,1.01285 v 3.26595 c 0,0.56117 0.451691,1.01286 1.012856,1.01286 h 4.588352 c 0.561165,0 1.013375,-0.45169 1.013375,-1.01286 v -3.26595 c 0,-0.56116 -0.45221,-1.01285 -1.013375,-1.01285 z"
         id="path6127" />
      <path
         style="display:inline;opacity:1;vector-effect:none;fill:#000000;fill-opacity:1;stroke:none;stroke-width:1.65416;stroke-linecap:round;stroke-linejoin:miter;stroke-miterlimit:4;stroke-dasharray:none;stroke-dashoffset:0;stroke-opacity:1;marker:none;marker-start:none;marker-mid:none;marker-end:none;paint-order:normal"
         d="m 130.79209,207.03241 h 4.58871 c 0.56117,0 1.01293,0.45177 1.01293,1.01294 v 3.2658 c 0,0.56116 -0.45176,1.01293 -1.01293,1.01293 h -4.58871 c -0.56116,0 -1.01293,-0.45177 -1.01293,-1.01293 v -3.2658 c 0,-0.56117 0.45177,-1.01294 1.01293,-1.01294 z"
         id="path6129" />
      <path
         style="display:inline;opacity:1;vector-effect:none;fill:#000000;fill-opacity:1;stroke:none;stroke-width:1.65416;stroke-linecap:round;stroke-linejoin:miter;stroke-miterlimit:4;stroke-dasharray:none;stroke-dashoffset:0;stroke-opacity:1;marker:none;marker-start:none;marker-mid:none;marker-end:none;paint-order:normal"
         d="m 138.72959,207.03241 h 4.58871 c 0.56117,0 1.01293,0.45177 1.01293,1.01294 v 3.2658 c 0,0.56116 -0.45176,1.01293 -1.01293,1.01293 h -4.58871 c -0.56116,0 -1.01293,-0.45177 -1.01293,-1.01293 v -3.2658 c 0,-0.56117 0.45177,-1.01294 1.01293,-1.01294 z"
         id="path6131" />
      <path
         style="display:inline;opacity:1;vector-effect:none;fill:#36343d;fill-opacity:1;stroke:none;stroke-width:1.8916;stroke-linecap:round;stroke-linejoin:miter;stroke-miterlimit:4;stroke-dasharray:none;stroke-dashoffset:0;stroke-opacity:1;marker:none;marker-start:none;marker-mid:none;marker-end:none;paint-order:normal"
         d="m 138.72974,206.50316 c -0.56117,0 -1.01286,0.45169 -1.01286,1.01285 v 3.26595 c 0,0.56117 0.45169,1.01286 1.01286,1.01286 h 4.58835 c 0.56117,0 1.01337,-0.45169 1.01337,-1.01286 v -3.26595 c 0,-0.56116 -0.4522,-1.01285 -1.01337,-1.01285 z"
         id="path6133" />
      <path
         style="display:inline;opacity:1;vector-effect:none;fill:#36343d;fill-opacity:1;stroke:none;stroke-width:1.8916;stroke-linecap:round;stroke-linejoin:miter;stroke-miterlimit:4;stroke-dasharray:none;stroke-dashoffset:0;stroke-opacity:1;marker:none;marker-start:none;marker-mid:none;marker-end:none;paint-order:normal"
         d="m 130.79224,206.50316 c -0.56116,0 -1.01286,0.45169 -1.01286,1.01285 v 3.26595 c 0,0.56117 0.4517,1.01286 1.01286,1.01286 h 4.58835 c 0.56116,0 1.01337,-0.45169 1.01337,-1.01286 v -3.26595 c 0,-0.56116 -0.45221,-1.01285 -1.01337,-1.01285 z"
         id="path6135" />
      <path
         style="display:inline;opacity:1;vector-effect:none;fill:#000000;fill-opacity:1;stroke:none;stroke-width:1.65416;stroke-linecap:round;stroke-linejoin:miter;stroke-miterlimit:4;stroke-dasharray:none;stroke-dashoffset:0;stroke-opacity:1;marker:none;marker-start:none;marker-mid:none;marker-end:none;paint-order:normal"
         d="m 130.79209,187.34478 h 4.58871 c 0.56117,0 1.01293,0.45177 1.01293,1.01294 v 3.2658 c 0,0.56116 -0.45176,1.01293 -1.01293,1.01293 h -4.58871 c -0.56116,0 -1.01293,-0.45177 -1.01293,-1.01293 v -3.2658 c 0,-0.56117 0.45177,-1.01294 1.01293,-1.01294 z"
         id="path6137" />
      <path
         style="display:inline;opacity:1;vector-effect:none;fill:#000000;fill-opacity:1;stroke:none;stroke-width:1.65416;stroke-linecap:round;stroke-linejoin:miter;stroke-miterlimit:4;stroke-dasharray:none;stroke-dashoffset:0;stroke-opacity:1;marker:none;marker-start:none;marker-mid:none;marker-end:none;paint-order:normal"
         d="m 138.72959,187.34478 h 4.58871 c 0.56117,0 1.01293,0.45177 1.01293,1.01294 v 3.2658 c 0,0.56116 -0.45176,1.01293 -1.01293,1.01293 h -4.58871 c -0.56116,0 -1.01293,-0.45177 -1.01293,-1.01293 v -3.2658 c 0,-0.56117 0.45177,-1.01294 1.01293,-1.01294 z"
         id="path6139" />
      <path
         style="display:inline;opacity:1;vector-effect:none;fill:#36343d;fill-opacity:1;stroke:none;stroke-width:1.8916;stroke-linecap:round;stroke-linejoin:miter;stroke-miterlimit:4;stroke-dasharray:none;stroke-dashoffset:0;stroke-opacity:1;marker:none;marker-start:none;marker-mid:none;marker-end:none;paint-order:normal"
         d="m 138.72974,186.81553 c -0.56117,0 -1.01286,0.45169 -1.01286,1.01285 v 3.26595 c 0,0.56117 0.45169,1.01286 1.01286,1.01286 h 4.58835 c 0.56117,0 1.01337,-0.45169 1.01337,-1.01286 v -3.26595 c 0,-0.56116 -0.4522,-1.01285 -1.01337,-1.01285 z"
         id="path6141" />
      <path
         style="display:inline;opacity:1;vector-effect:none;fill:#36343d;fill-opacity:1;stroke:none;stroke-width:1.8916;stroke-linecap:round;stroke-linejoin:miter;stroke-miterlimit:4;stroke-dasharray:none;stroke-dashoffset:0;stroke-opacity:1;marker:none;marker-start:none;marker-mid:none;marker-end:none;paint-order:normal"
         d="m 130.79224,186.81553 c -0.56116,0 -1.01286,0.45169 -1.01286,1.01285 v 3.26595 c 0,0.56117 0.4517,1.01286 1.01286,1.01286 h 4.58835 c 0.56116,0 1.01337,-0.45169 1.01337,-1.01286 v -3.26595 c 0,-0.56116 -0.45221,-1.01285 -1.01337,-1.01285 z"
         id="path6143" />
      <path
         style="display:inline;opacity:1;vector-effect:none;fill:#000000;fill-opacity:1;stroke:none;stroke-width:1.65416;stroke-linecap:round;stroke-linejoin:miter;stroke-miterlimit:4;stroke-dasharray:none;stroke-dashoffset:0;stroke-opacity:1;marker:none;marker-start:none;marker-mid:none;marker-end:none;paint-order:normal"
         d="m 146.66994,207.03241 h 4.58871 c 0.56117,0 1.01293,0.45177 1.01293,1.01294 v 3.2658 c 0,0.56116 -0.45176,1.01293 -1.01293,1.01293 h -4.58871 c -0.56116,0 -1.01293,-0.45177 -1.01293,-1.01293 v -3.2658 c 0,-0.56117 0.45177,-1.01294 1.01293,-1.01294 z"
         id="path6145" />
      <path
         style="display:inline;opacity:1;vector-effect:none;fill:#36343d;fill-opacity:1;stroke:none;stroke-width:1.8916;stroke-linecap:round;stroke-linejoin:miter;stroke-miterlimit:4;stroke-dasharray:none;stroke-dashoffset:0;stroke-opacity:1;marker:none;marker-start:none;marker-mid:none;marker-end:none;paint-order:normal"
         d="m 146.67009,206.50316 c -0.56117,0 -1.01286,0.45169 -1.01286,1.01285 v 3.26595 c 0,0.56117 0.45169,1.01286 1.01286,1.01286 h 4.58835 c 0.56117,0 1.01337,-0.45169 1.01337,-1.01286 v -3.26595 c 0,-0.56116 -0.4522,-1.01285 -1.01337,-1.01285 z"
         id="path6147" />
      <path
         style="display:inline;opacity:1;vector-effect:none;fill:#000000;fill-opacity:1;stroke:none;stroke-width:1.65416;stroke-linecap:round;stroke-linejoin:miter;stroke-miterlimit:4;stroke-dasharray:none;stroke-dashoffset:0;stroke-opacity:1;marker:none;marker-start:none;marker-mid:none;marker-end:none;paint-order:normal"
         d="m 146.66994,187.34478 h 4.58871 c 0.56117,0 1.01293,0.45177 1.01293,1.01294 v 3.2658 c 0,0.56116 -0.45176,1.01293 -1.01293,1.01293 h -4.58871 c -0.56116,0 -1.01293,-0.45177 -1.01293,-1.01293 v -3.2658 c 0,-0.56117 0.45177,-1.01294 1.01293,-1.01294 z"
         id="path6149" />
      <path
         style="display:inline;opacity:1;vector-effect:none;fill:#36343d;fill-opacity:1;stroke:none;stroke-width:1.8916;stroke-linecap:round;stroke-linejoin:miter;stroke-miterlimit:4;stroke-dasharray:none;stroke-dashoffset:0;stroke-opacity:1;marker:none;marker-start:none;marker-mid:none;marker-end:none;paint-order:normal"
         d="m 146.67009,186.81553 c -0.56117,0 -1.01286,0.45169 -1.01286,1.01285 v 3.26595 c 0,0.56117 0.45169,1.01286 1.01286,1.01286 h 4.58835 c 0.56117,0 1.01337,-0.45169 1.01337,-1.01286 v -3.26595 c 0,-0.56116 -0.4522,-1.01285 -1.01337,-1.01285 z"
         id="path6151" />
      <path
         style="display:inline;opacity:1;vector-effect:none;fill:#000000;fill-opacity:1;stroke:none;stroke-width:1.65416;stroke-linecap:round;stroke-linejoin:miter;stroke-miterlimit:4;stroke-dasharray:none;stroke-dashoffset:0;stroke-opacity:1;marker:none;marker-start:none;marker-mid:none;marker-end:none;paint-order:normal"
         d="m 138.72959,200.40592 h 4.58871 c 0.56117,0 1.01293,0.45177 1.01293,1.01294 v 3.2658 c 0,0.56116 -0.45176,1.01293 -1.01293,1.01293 h -4.58871 c -0.56116,0 -1.01293,-0.45177 -1.01293,-1.01293 v -3.2658 c 0,-0.56117 0.45177,-1.01294 1.01293,-1.01294 z"
         id="path6153" />
      <path
         style="display:inline;opacity:1;vector-effect:none;fill:#36343d;fill-opacity:1;stroke:none;stroke-width:1.8916;stroke-linecap:round;stroke-linejoin:miter;stroke-miterlimit:4;stroke-dasharray:none;stroke-dashoffset:0;stroke-opacity:1;marker:none;marker-start:none;marker-mid:none;marker-end:none;paint-order:normal"
         d="m 138.72974,199.87667 c -0.56117,0 -1.01286,0.45169 -1.01286,1.01285 v 3.26595 c 0,0.56117 0.45169,1.01286 1.01286,1.01286 h 4.58835 c 0.56117,0 1.01337,-0.45169 1.01337,-1.01286 v -3.26595 c 0,-0.56116 -0.4522,-1.01285 -1.01337,-1.01285 z"
         id="path6155" />
    </g>
    <g
       transform="matrix(4.1585112,0,0,4.1585112,191.69764,326.2109)"
       id="g11726"
       style="display:inline;stroke-width:1.50077">
      <rect
         style="opacity:1;vector-effect:none;fill:#000000;fill-opacity:0.102362;stroke:none;stroke-width:2.38247;stroke-linecap:round;stroke-linejoin:miter;stroke-miterlimit:4;stroke-dasharray:none;stroke-dashoffset:0;stroke-opacity:1;marker:none;marker-start:none;marker-mid:none;marker-end:none;paint-order:normal"
         id="rect15054"
         width="23.283333"
         height="35.454166"
         x="248.70833"
         y="158.74997"
         rx="17.471415"
         ry="17.471415" />
      <rect
         ry="11.641666"
         rx="11.641666"
         y="157.69165"
         x="248.70833"
         height="35.454166"
         width="23.283333"
         id="rect11709"
         style="opacity:1;vector-effect:none;fill:#5e5c64;fill-opacity:1;stroke:none;stroke-width:2.38247;stroke-linecap:round;stroke-linejoin:miter;stroke-miterlimit:4;stroke-dasharray:none;stroke-dashoffset:0;stroke-opacity:1;marker:none;marker-start:none;marker-mid:none;marker-end:none;paint-order:normal" />
      <rect
         style="opacity:1;vector-effect:none;fill:#9a9996;fill-opacity:1;stroke:none;stroke-width:6.35324;stroke-linecap:round;stroke-linejoin:miter;stroke-miterlimit:4;stroke-dasharray:none;stroke-dashoffset:0;stroke-opacity:1;marker:none;marker-start:none;marker-mid:none;marker-end:none;paint-order:normal"
         id="rect11701"
         width="23.283333"
         height="35.454166"
         x="248.70833"
         y="156.10417"
         rx="11.641666"
         ry="11.641666" />
      <path
         style="fill:#5e5c64;fill-opacity:1;stroke:#5e5c64;stroke-width:0.397077px;stroke-linecap:butt;stroke-linejoin:miter;stroke-opacity:1"
         d="M 260.61458,170.65625 V 156.10416"
         id="path11703"
         inkscape:connector-curvature="0" />
      <rect
         style="opacity:1;vector-effect:none;fill:#36343d;fill-opacity:1;stroke:none;stroke-width:6.35324;stroke-linecap:round;stroke-linejoin:miter;stroke-miterlimit:4;stroke-dasharray:none;stroke-dashoffset:0;stroke-opacity:1;marker:none;marker-start:none;marker-mid:none;marker-end:none;paint-order:normal"
         id="rect11707"
         width="5.2916665"
         height="13.229166"
         x="257.96875"
         y="160.07292"
         rx="2.6458333"
         ry="2.6458333" />
      <circle
         r="1.4552083"
         cy="162.00343"
         cx="260.603"
         id="path15652"
         style="opacity:1;vector-effect:none;fill:#c0bfbc;fill-opacity:0.102362;stroke:none;stroke-width:2.90278;stroke-linecap:round;stroke-linejoin:miter;stroke-miterlimit:4;stroke-dasharray:none;stroke-dashoffset:0;stroke-opacity:1;marker:none;marker-start:none;marker-mid:none;marker-end:none;paint-order:normal" />
    </g>
    <g
       id="g973"
       clip-path="url(#clipPath984)"
       inkscape:path-effect="#path-effect988">
      <path
         style="font-variation-settings:normal;opacity:1;vector-effect:none;fill:#000000;fill-opacity:0.102362;stroke:none;stroke-width:5.02877;stroke-linecap:round;stroke-linejoin:miter;stroke-miterlimit:4;stroke-dasharray:none;stroke-dashoffset:0;stroke-opacity:1;marker:none;marker-start:none;marker-mid:none;marker-end:none;paint-order:normal;stop-color:#000000;stop-opacity:1"
         id="rect926"
         width="275.1561"
         height="310.64557"
         x="404.30566"
         y="482.03616"
         rx="20.958838"
         ry="20.958838"
         sodipodi:type="rect"
         d="m 425.2645,482.03616 h 233.23842 c 11.6112,0 20.95884,9.34764 20.95884,20.95884 v 268.72789 c 0,11.6112 -9.34764,20.95884 -20.95884,20.95884 H 425.2645 c -11.61119,0 -20.95884,-9.34764 -20.95884,-20.95884 V 502.995 c 0,-11.6112 9.34765,-20.95884 20.95884,-20.95884 z" />
      <path
         style="font-variation-settings:normal;opacity:1;vector-effect:none;fill:#5e5c64;fill-opacity:1;stroke:none;stroke-width:5.04302;stroke-linecap:round;stroke-linejoin:miter;stroke-miterlimit:4;stroke-dasharray:none;stroke-dashoffset:0;stroke-opacity:1;marker:none;marker-start:none;marker-mid:none;marker-end:none;paint-order:normal;stop-color:#000000;stop-opacity:1"
         id="rect257"
         width="275.1561"
         height="310.64557"
         x="404.30566"
         y="475.97519"
         rx="20.958838"
         ry="20.958838"
         sodipodi:type="rect"
         d="m 425.2645,475.97519 h 233.23842 c 11.6112,0 20.95884,9.34764 20.95884,20.95884 v 268.72789 c 0,11.6112 -9.34764,20.95884 -20.95884,20.95884 H 425.2645 c -11.61119,0 -20.95884,-9.34764 -20.95884,-20.95884 V 496.93403 c 0,-11.6112 9.34765,-20.95884 20.95884,-20.95884 z" />
      <path
         style="fill:#434348;fill-opacity:1;stroke-linecap:round;stop-color:#000000"
         id="rect101"
         width="275.1561"
         height="310.64557"
         x="404.30566"
         y="394.6405"
         rx="0"
         ry="0"
         sodipodi:type="rect"
         d="m 404.30566,394.6405 h 275.1561 v 310.64557 h -275.1561 z" />
    </g>
    <g
       transform="matrix(1.8204669,0,0,1.8204669,-1489.8609,222.32446)"
       style="display:inline;stroke-width:0.972716;enable-background:new"
       id="g65">
      <path
         style="display:inline;opacity:1;vector-effect:none;fill:#000000;fill-opacity:1;stroke:none;stroke-width:0.047906px;stroke-linecap:butt;stroke-linejoin:miter;stroke-miterlimit:4;stroke-dasharray:none;stroke-dashoffset:0;stroke-opacity:1;marker:none;marker-start:none;marker-mid:none;marker-end:none;paint-order:normal;enable-background:new"
         d="M 1367.7351,-75.863459 V 221.75228 a 8,8 135 0 1 -8,8 H 872.26485 a 8,8 45 0 1 -8,-8 V -75.863459 a 8,8 135 0 1 8,-8 h 487.47025 a 8,8 45 0 1 8,8 z"
         id="path63"
         inkscape:connector-curvature="0"
         sodipodi:nodetypes="ccccc"
         inkscape:path-effect="#path-effect259"
         inkscape:original-d="M 1367.7351,-83.863459 V 229.75228 H 864.26485 V -83.863459 Z" />
    </g>
  </g>
</svg>
